<?xml version="1.0" encoding="utf-8"?>
<!-- Generator: Adobe Illustrator 16.0.0, SVG Export Plug-In . SVG Version: 6.00 Build 0)  -->
<!DOCTYPE svg PUBLIC "-//W3C//DTD SVG 1.1//EN" "http://www.w3.org/Graphics/SVG/1.1/DTD/svg11.dtd">
<svg version="1.1" xmlns="http://www.w3.org/2000/svg" xmlns:xlink="http://www.w3.org/1999/xlink" x="0px" y="0px" width="100%" height="100%" viewBox="0 0 64 64" enable-background="new 0 0 64 64" xml:space="preserve">
<g>
	<g>
		<path class="main" fill="#939598" d="M32.013,62.43l-4.507-4.457C10.886,43.262,0,33.338,0,21.161C0,11.259,7.694,3.572,17.603,3.572
			c5.446,0,10.885,2.573,14.41,6.729c3.505-4.156,8.938-6.729,14.391-6.729C56.301,3.572,64,11.259,64,21.161
			c0,12.177-10.879,22.101-27.512,36.812L32.013,62.43z M32.013,62.43"/>
	</g>
</g>
</svg>
