{
    "browserSync": {
        "__COMMENT__": "@link https://www.npmjs.com/package/browser-sync",
        "proxy": "www.nmdad2.local"
    },
    "dir": {
        "dest": "./dist/",
        "src": "./src",
        "templates": {
            "src": "./src/app/**/*.html",
            "dest": "./dist/html/"
        }
    },
    "phantom": {
        "__COMMENT__": "@link https://www.npmjs.com/package/phantomjs"
    },
    "sass": {
        "__COMMENT__1": "@link https://www.npmjs.com/package/gulp-sass",
        "__COMMENT__2": "@link https://github.com/sass/node-sass",
        "includePaths": [],
        "outputStyle": "compressed"
    },
    "serve": {
        "hostname": "localhost",
        "port": 8080,
        "root": "./dist/"

    }
}
